Chapter 30 Difference-in-Differences | A Guide on Data Analysis
…
# Display weighted average of the decomposition
weighted_avg <- sum(df_bacon$estimate * df_bacon$weight)
weighted_avg
#> [1] 0.08181162

Comparing with the TWFE Estimate

library(broom)

# Fit a TWFE model
fit_tw <- lm(l_homicide ~ post + factor(state) + factor(year), data = castle)
tidy(fit_tw)
#> # A tibble: 61 × 5
#>    term                     estimate std.error statistic   p.value
#>    <chr>                       <dbl>     <dbl>     <dbl>     <dbl>
#>  1 (Intercept)                1.95      0.0624    31.2   2.84e-118
#>  2 post                       0.0818    0.0317     2.58  1.02e-  2
#>  3 factor(state)Alaska       -0.373     0.0797    -4.68  3.77e-  6
#>  4 factor(state)Arizona       0.0158    0.0797     0.198 8.43e-  1
#>  5 factor(state)Arkansas     -0.118     0.0810    -1.46  1.44e-  1
#>  6 factor(state)California   -0.108     0.0810    -1.34  1.82e-  1
#>  7 factor(state)Colorado     -0.696     0.0810    -8.59  1.14e- 16
#>  8 factor(state)Connecticut  -0.785     0.0810    -9.68  2.08e- 20
#>  9 factor(state)Delaware     -0.547     0.0810    -6.75  4.18e- 11
#> 10 factor(state)Florida      -0.251     0.0798    -3.14  1.76e-  3
#> # ℹ 51 more rows
…
