…
```r
# by fraction
sample_iris <- iris %>%
    group_by(Species) %>%
    sample_frac(size = .15)
sample_iris
```

```
## # A tibble: 24 x 5
## # Groups:   Species [3]
##    Sepal.Length Sepal.Width Petal.Length Petal.Width Species   
##           <dbl>       <dbl>        <dbl>       <dbl> <fct>     
##  1          5.4         3.9          1.3         0.4 setosa    
##  2          5.2         4.1          1.5         0.1 setosa    
##  3          5.1         3.4          1.5         0.2 setosa    
##  4          5.7         3.8          1.7         0.3 setosa    
##  5          5           3.3          1.4         0.2 setosa    
##  6          5.1         3.8          1.5         0.3 setosa    
##  7          4.6         3.6          1           0.2 setosa    
##  8          5.1         3.8          1.9         0.4 setosa    
##  9          6.2         2.9          4.3         1.3 versicolor
## 10          5.1         2.5          3           1.1 versicolor
## # ... with 14 more rows
```


```r
library(sampler)
# Stratified sample using proportional allocation without replacement
ssamp(df=albania, n=360, strata=qarku, over=0.1)
```

```
## # A tibble: 395 x 45
##    qarku  Q_ID bashkia BAS_ID zaz    njesiaAdministrative COM_ID qvKod  zgjedhes
##    <fct> <int> <fct>    <int> <fct>  <fct>                 <int> <fct>     <int>
##  1 Berat     1 Berat       11 ZAZ 64 "Berat "               1101 "\"33~      753
##  2 Berat     1 Berat       11 ZAZ 64 "Velabisht"            1111 "\"33~      757
##  3 Berat     1 Skrapar     17 ZAZ 66 "Potom"                1307 "\"35~      247
##  4 Berat     1 Kucove      13 ZAZ 63 "Kucove"               1201 "\"35~      589
##  5 Berat     1 Polican     15 ZAZ 65 "Terpan"               1109 "\"33~      523
##  6 Berat     1 Berat       11 ZAZ 64 "Roshnik"              1107 "\"34~      783
##  7 Berat     1 Kucove      13 ZAZ 63 "Kozare"               1202 "\"34~      594
##  8 Berat     1 Polican     15 ZAZ 65 "Vertop"               1112 "\"34~      593
##  9 Berat     1 Berat       11 ZAZ 64 "Sinje"                1108 "\"33~      647
## 10 Berat     1 Polican     15 ZAZ 65 "Polican"              1306 "\"35~      622
## # ... with 385 more rows, and 36 more variables: meshkuj <int>, femra <int>,
## #   totalSeats <int>, vendndodhja <fct>, ambienti <fct>, totalVoters <int>,
## #   femVoters <int>, maleVoters <int>, unusedBallots <int>,
## #   damagedBallots <int>, ballotsCast <int>, invalidVotes <int>,
## #   validVotes <int>, lsi <int>, ps <int>, pkd <int>, sfida <int>, pr <int>,
## #   pd <int>, pbdksh <int>, adk <int>, psd <int>, ad <int>, frd <int>,
## #   pds <int>, pdiu <int>, aak <int>, mega <int>, pksh <int>, apd <int>, ...
```
…
